{
    "page": 1,
    "total_results": 19814,
    "total_pages": 991,
    "results": [
        {
            "vote_count": 7324,
            "id": 299536,
            "video": false,
            "vote_average": 8.3,
            "title": "Avengers: Infinity War",
            "popularity": 237.492,
            "poster_path": "/7WsyChQLEftFiDOVTGkv3hFpyyt.jpg",
            "original_language": "en",
            "original_title": "Avengers: Infinity War",
            "genre_ids": [
                12,
                878,
                14,
                28
            ],
            "backdrop_path": "/bOGkgRGdhrBYJSLpXaxhXVstddV.jpg",
            "adult": false,
            "overview": "As the Avengers and their allies have continued to protect the world from threats too large for any one hero to handle, a new danger has emerged from the cosmic shadows: Thanos. A despot of intergalactic infamy, his goal is to collect all six Infinity Stones, artifacts of unimaginable power, and use them to inflict his twisted will on all of reality. Everything the Avengers have fought for has led up to this moment - the fate of Earth and existence itself has never been more uncertain.",
            "release_date": "2018-04-25"
        },
        {
            "vote_count": 4294,
            "id": 383498,
            "video": false,
            "vote_average": 7.5,
            "title": "Deadpool 2",
            "popularity": 195.542,
            "poster_path": "/to0spRl1CMDvyUbOnbb4fTk3VAd.jpg",
            "original_language": "en",
            "original_title": "Deadpool 2",
            "genre_ids": [
                28,
                35,
                878
            ],
            "backdrop_path": "/3P52oz9HPQWxcwHOwxtyrVV1LKi.jpg",
            "adult": false,
            "overview": "Wisecracking mercenary Deadpool battles the evil and powerful Cable and other bad guys to save a boy's life.",
            "release_date": "2018-05-15"
        },
        {
            "vote_count": 562,
            "id": 345940,
            "video": false,
            "vote_average": 6.2,
            "title": "The Meg",
            "popularity": 150.433,
            "poster_path": "/xqECHNvzbDL5I3iiOVUkVPJMSbc.jpg",
            "original_language": "en",
            "original_title": "The Meg",
            "genre_ids": [
                28,
                878,
                53,
                27
            ],
            "backdrop_path": "/ibKeXahq4JD63z6uWQphqoJLvNw.jpg",
            "adult": false,
            "overview": "A deep sea submersible pilot revisits his past fears in the Mariana Trench, and accidentally unleashes the seventy foot ancestor of the Great White Shark believed to be extinct.",
            "release_date": "2018-08-09"
        },
        {
            "vote_count": 1142,
            "id": 353081,
            "video": false,
            "vote_average": 7.4,
            "title": "Mission: Impossible - Fallout",
            "popularity": 134.178,
            "poster_path": "/AkJQpZp9WoNdj7pLYSj1L0RcMMN.jpg",
            "original_language": "en",
            "original_title": "Mission: Impossible - Fallout",
            "genre_ids": [
                12,
                28,
                53
            ],
            "backdrop_path": "/5qxePyMYDisLe8rJiBYX8HKEyv2.jpg",
            "adult": false,
            "overview": "When an IMF mission ends badly, the world is faced with dire consequences. As Ethan Hunt takes it upon himself to fulfil his original briefing, the CIA begin to question his loyalty and his motives. The IMF team find themselves in a race against time, hunted by assassins while trying to prevent a global catastrophe.",
            "release_date": "2018-07-25"
        },
        {
            "vote_count": 1189,
            "id": 402900,
            "video": false,
            "vote_average": 6.9,
            "title": "Ocean's Eight",
            "popularity": 101.914,
            "poster_path": "/MvYpKlpFukTivnlBhizGbkAe3v.jpg",
            "original_language": "en",
            "original_title": "Ocean's Eight",
            "genre_ids": [
                80,
                35,
                28,
                53
            ],
            "backdrop_path": "/scQf03Fm3jeyv4FH04qvi4fp4wh.jpg",
            "adult": false,
            "overview": "Debbie Ocean, a criminal mastermind, gathers a crew of female thieves to pull off the heist of the century at New York's annual Met Gala.",
            "release_date": "2018-06-07"
        },
        {
            "vote_count": 7,
            "id": 507569,
            "video": false,
            "vote_average": 6.6,
            "title": "The Seven Deadly Sins: Prisoners of the Sky",
            "popularity": 98.041,
            "poster_path": "/fK6zf4eN5xxkCO3MP9rDNWOq6Ys.jpg",
            "original_language": "ja",
            "original_title": "劇場版 七つの大罪 天空の囚われ人",
            "genre_ids": [
                28,
                12,
                14,
                16
            ],
            "backdrop_path": "/uKwOX7MtKlAaGeCQe6c4jc1vZpj.jpg",
            "adult": false,
            "overview": "The Seven Deadly Sins travel to a remote land in search of the phantom ingredient \"sky fish.\" Meliodas and Hawk end up at a \"Sky Palace\" that exists above the clouds, where all the residents have wings. Meliodas is mistaken for a boy who committed a crime and is thrown in prison. Meanwhile, the residents are preparing a ceremony for defense against a ferocious beast that awakens once every 3,000 years. But the Six Knights of Black, a Demon Clan army, arrives and removes the seal on the beast in order to threaten the lives of the residents of Sky Palace. Meliodas and his allies meet the Six Knights of Black in battle.",
            "release_date": "2018-08-18"
        },
        {
            "vote_count": 1114,
            "id": 466282,
            "video": false,
            "vote_average": 8.3,
            "title": "To All the Boys I've Loved Before",
            "popularity": 86.821,
            "poster_path": "/hKHZhUbIyUAjcSrqJThFGYIR6kI.jpg",
            "original_language": "en",
            "original_title": "To All the Boys I've Loved Before",
            "genre_ids": [
                35,
                10749
            ],
            "backdrop_path": "/hBHxBOGQBTMX3bDmqKoAgniZ9hE.jpg",
            "adult": false,
            "overview": "Lara Jean's love life goes from imaginary to out of control when her secret letters to every boy she's ever fallen for are mysteriously mailed out.",
            "release_date": "2018-08-17"
        },
        {
            "vote_count": 7723,
            "id": 284054,
            "video": false,
            "vote_average": 7.3,
            "title": "Black Panther",
            "popularity": 84.267,
            "poster_path": "/uxzzxijgPIY7slzFvMotPv8wjKA.jpg",
            "original_language": "en",
            "original_title": "Black Panther",
            "genre_ids": [
                28,
                12,
                14,
                878
            ],
            "backdrop_path": "/b6ZJZHUdMEFECvGiDpJjlfUWela.jpg",
            "adult": false,
            "overview": "King T'Challa returns home from America to the reclusive, technologically advanced African nation of Wakanda to serve as his country's new leader. However, T'Challa soon finds that he is challenged for the throne by factions within his own country as well as without. Using powers reserved to Wakandan kings, T'Challa assumes the Black Panther mantel to join with girlfriend Nakia, the queen-mother, his princess-kid sister, members of the Dora Milaje (the Wakandan 'special forces') and an American secret agent, to prevent Wakanda from being dragged into a world war.",
            "release_date": "2018-02-13"
        },
        {
            "vote_count": 2866,
            "id": 351286,
            "video": false,
            "vote_average": 6.6,
            "title": "Jurassic World: Fallen Kingdom",
            "popularity": 77.907,
            "poster_path": "/c9XxwwhPHdaImA2f1WEfEsbhaFB.jpg",
            "original_language": "en",
            "original_title": "Jurassic World: Fallen Kingdom",
            "genre_ids": [
                28,
                12,
                878
            ],
            "backdrop_path": "/3s9O5af2xWKWR5JzP2iJZpZeQQg.jpg",
            "adult": false,
            "overview": "Several years after the demise of Jurassic World, a volcanic eruption threatens the remaining dinosaurs on the island of Isla Nublar. Claire Dearing, the former park manager and founder of the Dinosaur Protection Group, recruits Owen Grady to help prevent the extinction of the dinosaurs once again.",
            "release_date": "2018-06-06"
        },
        {
            "vote_count": 661,
            "id": 493922,
            "video": false,
            "vote_average": 7,
            "title": "Hereditary",
            "popularity": 76.317,
            "poster_path": "/4GFPuL14eXi66V96xBWY73Y9PfR.jpg",
            "original_language": "en",
            "original_title": "Hereditary",
            "genre_ids": [
                27,
                18,
                9648,
                53
            ],
            "backdrop_path": "/pS9Aub8MPyQbENblGD8mHeaqMuv.jpg",
            "adult": false,
            "overview": "When Ellen, the matriarch of the Graham family, passes away, her daughter's family begins to unravel cryptic and increasingly terrifying secrets about their ancestry. The more they discover, the more they find themselves trying to outrun the sinister fate they seem to have inherited.",
            "release_date": "2018-06-04"
        },
        {
            "vote_count": 0,
            "id": 505954,
            "video": false,
            "vote_average": 0,
            "title": "T-34",
            "popularity": 73.591,
            "poster_path": "/wNJF8R5QE6nBT7DQoKk8t6YD1MM.jpg",
            "original_language": "ru",
            "original_title": "Т-34",
            "genre_ids": [
                10752,
                18,
                12
            ],
            "backdrop_path": "/vDx8XxfYjkn573bCFGF6SkdM33Q.jpg",
            "adult": false,
            "overview": "1941. WWii. the second lieutenant Nikolai ivushkin, commander of a t-34, engages in an unequal battle against the tank ace Klaus Jager in a battle near moscow. His mission is more of a suicide - to destroy a dozen german tanks, all by himself. that said, luck does favour the bold. He wins the battle, barely survives, but loses his tank and lands himself in captivity for three long years... there was little to no chance for ivushkin and Jager to meet again, but the war knows how to throw a curve ball.in the spring of 1944, the Wehrmacht commands Jager to take charge of the ohrdruf  re range and turn it into a training center for elite german armored forces, using the latest t-34 as a running target. this is how Jager and ivushkin cross paths again. Jager o ers ivushkin to become the commander of a legendary tank and pick his crew from fellow camp prisoners. Nothing goes according to plan, though, when ivushkin uses exercises for a daring and carefully planned escape.",
            "release_date": "2018-12-27"
        },
        {
            "vote_count": 4,
            "id": 135870,
            "video": false,
            "vote_average": 4.9,
            "title": "Rebel",
            "popularity": 69.58,
            "poster_path": "/dNTzorrVmcJ25fUGzs9FfkoXb0P.jpg",
            "original_language": "te",
            "original_title": "రెబెల్",
            "genre_ids": [
                28
            ],
            "backdrop_path": "/yCGEkEqy7uOo7NwlbgOzGrI8i43.jpg",
            "adult": false,
            "overview": "Rebel is a romantic action revenge drama, which revolves around the story of a happy-go-lucky guy. The hero (Prabhas) is the son of a good-natured mafia don (Krishnam Raju). The hero becomes Rebel after his father is killed. How he takes revenge upon the people, who killed his father, will form the second half of the movie. Apart from directing, Raghava Lawrence also handles the choreography, screenplay and music direction for the film. The film is being produced by J. Bhaghawan and J. Pulla Rao under Sri Balaji Cine Media banner.",
            "release_date": "2012-09-28"
        },
        {
            "vote_count": 1,
            "id": 523873,
            "video": false,
            "vote_average": 0,
            "title": "Kung Fu League",
            "popularity": 69.017,
            "poster_path": "/rW0A73hjzPWVwADlCTLnjLhAFLX.jpg",
            "original_language": "zh",
            "original_title": "功夫联盟",
            "genre_ids": [
                28,
                35
            ],
            "backdrop_path": null,
            "adult": false,
            "overview": "Martial arts comedy following a group of kung fu legends banding together to take on the bad guys. The legends includes VINCENT ZHAO reprising his role as ‘Wong Fei Hung’ with DENNIS TO once again portraying ‘Wing Chun’ master ‘Ip Man’, DANNY CHAN KWOK KWAN as ‘Chen Zhen’ and ANDY ON as master ‘Huo Yuan Jia’.",
            "release_date": "2018-10-19"
        },
        {
            "vote_count": 7998,
            "id": 284053,
            "video": false,
            "vote_average": 7.5,
            "title": "Thor: Ragnarok",
            "popularity": 66.972,
            "poster_path": "/rzRwTcFvttcN1ZpX2xv4j3tSdJu.jpg",
            "original_language": "en",
            "original_title": "Thor: Ragnarok",
            "genre_ids": [
                28,
                12
            ],
            "backdrop_path": "/kaIfm5ryEOwYg8mLbq8HkPuM1Fo.jpg",
            "adult": false,
            "overview": "Thor is on the other side of the universe and finds himself in a race against time to get back to Asgard to stop Ragnarok, the prophecy of destruction to his homeworld and the end of Asgardian civilization, at the hands of an all-powerful new threat, the ruthless Hela.",
            "release_date": "2017-10-25"
        },
        {
            "vote_count": 54,
            "id": 399360,
            "video": false,
            "vote_average": 5.9,
            "title": "Alpha",
            "popularity": 66.162,
            "poster_path": "/afdZAIcAQscziqVtsEoh2PwsYTW.jpg",
            "original_language": "en",
            "original_title": "Alpha",
            "genre_ids": [
                53,
                12,
                18
            ],
            "backdrop_path": "/nKMeTdm72LQ756Eq20uTjF1zDXu.jpg",
            "adult": false,
            "overview": "After a hunting expedition goes awry, a young caveman struggles against the elements to find his way home.",
            "release_date": "2018-08-17"
        },
        {
            "vote_count": 1645,
            "id": 454983,
            "video": false,
            "vote_average": 7.5,
            "title": "The Kissing Booth",
            "popularity": 64.669,
            "poster_path": "/7Dktk2ST6aL8h9Oe5rpk903VLhx.jpg",
            "original_language": "en",
            "original_title": "The Kissing Booth",
            "genre_ids": [
                10749,
                35
            ],
            "backdrop_path": "/xEKx7zPEjN6meomZ7OhV82Mm2jm.jpg",
            "adult": false,
            "overview": "When teenager Elle's first kiss leads to a forbidden romance with the hottest boy in high school, she risks her relationship with her best friend.",
            "release_date": "2018-05-11"
        },
        {
            "vote_count": 248,
            "id": 500664,
            "video": false,
            "vote_average": 7.5,
            "title": "Upgrade",
            "popularity": 63.543,
            "poster_path": "/woLGROUdPWdBnLVFKYdGD3kFkPY.jpg",
            "original_language": "en",
            "original_title": "Upgrade",
            "genre_ids": [
                28,
                53,
                878
            ],
            "backdrop_path": "/22cUd4Yg5euCxIwWzXrL4m4otkU.jpg",
            "adult": false,
            "overview": "A brutal mugging leaves Grey Trace paralyzed in the hospital and his beloved wife dead. A billionaire inventor soon offers Trace a cure — an artificial intelligence implant called STEM that will enhance his body. Now able to walk, Grey finds that he also has superhuman strength and agility — skills he uses to seek revenge against the thugs who destroyed his life.",
            "release_date": "2018-06-01"
        },
        {
            "vote_count": 1738,
            "id": 363088,
            "video": false,
            "vote_average": 7,
            "title": "Ant-Man and the Wasp",
            "popularity": 62.765,
            "poster_path": "/rv1AWImgx386ULjcf62VYaW8zSt.jpg",
            "original_language": "en",
            "original_title": "Ant-Man and the Wasp",
            "genre_ids": [
                28,
                12,
                14,
                35,
                878
            ],
            "backdrop_path": "/6P3c80EOm7BodndGBUAJHHsHKrp.jpg",
            "adult": false,
            "overview": "As Scott Lang awaits expiration of his term of house detention, Hope van Dyne and Dr. Hank Pym involve him in a scheme to rescue Mrs. van Dyne from the micro-universe into which she has fallen, while two groups of schemers converge on them with intentions of stealing Dr. Pym's inventions.",
            "release_date": "2018-07-04"
        },
        {
            "vote_count": 3847,
            "id": 333339,
            "video": false,
            "vote_average": 7.7,
            "title": "Ready Player One",
            "popularity": 60.07,
            "poster_path": "/pU1ULUq8D3iRxl1fdX2lZIzdHuI.jpg",
            "original_language": "en",
            "original_title": "Ready Player One",
            "genre_ids": [
                12,
                878,
                14
            ],
            "backdrop_path": "/5a7lMDn3nAj2ByO0X1fg6BhUphR.jpg",
            "adult": false,
            "overview": "When the creator of a popular video game system dies, a virtual contest is created to compete for his fortune.",
            "release_date": "2018-03-28"
        },
        {
            "vote_count": 393,
            "id": 455980,
            "video": false,
            "vote_average": 6.9,
            "title": "Tag",
            "popularity": 55.113,
            "poster_path": "/eXXpuW2xaq5Aen9N5prFlARVIvr.jpg",
            "original_language": "en",
            "original_title": "Tag",
            "genre_ids": [
                35,
                18
            ],
            "backdrop_path": "/yRXzrwLfB5tDTIA3lSU9S3N9RUK.jpg",
            "adult": false,
            "overview": "For one month every year, five highly competitive friends hit the ground running in a no-holds-barred game of tag they’ve been playing since the first grade. This year, the game coincides with the wedding of their only undefeated player, which should finally make him an easy target. But he knows they’re coming...and he’s ready.",
            "release_date": "2018-05-30"
        }
    ]
}